<?xml version="1.0" standalone="no"?>
<!DOCTYPE svg PUBLIC "-//W3C//DTD SVG 20010904//EN"
 "http://www.w3.org/TR/2001/REC-SVG-20010904/DTD/svg10.dtd">
<svg version="1.0" xmlns="http://www.w3.org/2000/svg"
 width="258.000000pt" height="258.000000pt" viewBox="0 0 258.000000 258.000000"
 preserveAspectRatio="xMidYMid meet">
<metadata>
Created by potrace 1.14, written by Peter Selinger 2001-2017
</metadata>
<g transform="translate(0.000000,258.000000) scale(0.100000,-0.100000)"
fill="#000000" stroke="none">
<path d="M1367 2383 c-4 -3 -35 -8 -69 -10 -35 -2 -68 -6 -75 -8 -7 -2 -15 0
-19 6 -4 6 -11 5 -21 -3 -15 -12 -28 -16 -65 -20 -10 -1 -18 -5 -18 -9 0 -3
-13 -5 -30 -4 -16 1 -27 -2 -24 -7 5 -7 -10 -12 -28 -9 -5 0 -8 -4 -8 -10 0
-5 -4 -7 -10 -4 -5 3 -10 1 -10 -4 0 -6 -3 -10 -7 -9 -10 2 -43 -10 -63 -23
-8 -5 -25 -14 -38 -19 -14 -6 -20 -15 -16 -22 4 -7 3 -8 -4 -4 -12 7 -23 0
-68 -41 -14 -13 -28 -23 -32 -23 -4 0 -7 -6 -7 -12 0 -7 -6 -13 -13 -13 -13 0
-62 -52 -62 -67 0 -4 -3 -7 -7 -6 -5 2 -9 0 -10 -5 -2 -4 -13 -18 -25 -30 -13
-12 -30 -34 -37 -49 -8 -16 -18 -28 -23 -28 -4 0 -8 -6 -8 -14 0 -7 -7 -19
-15 -26 -8 -6 -14 -15 -13 -18 2 -21 -3 -32 -14 -26 -7 4 -8 3 -4 -5 4 -6 2
-18 -4 -26 -6 -8 -8 -20 -4 -26 4 -8 3 -9 -4 -5 -7 4 -13 2 -13 -3 -2 -14 -6
-30 -9 -33 -4 -6 -12 -44 -14 -65 0 -11 -4 -19 -8 -16 -7 4 -13 -36 -9 -64 1
-7 -2 -13 -6 -13 -5 0 -9 -19 -8 -42 0 -24 -4 -46 -10 -50 -6 -5 -5 -8 3 -8 7
0 10 -5 7 -10 -13 -21 -15 -60 -4 -60 8 0 8 -4 -1 -15 -6 -8 -8 -20 -4 -26 4
-8 3 -9 -4 -5 -7 4 -12 1 -12 -8 0 -9 -3 -15 -7 -15 -21 3 -33 -3 -33 -17 0
-8 -5 -12 -10 -9 -6 3 -10 -2 -10 -11 0 -10 -3 -15 -6 -11 -8 7 -28 -12 -37
-35 -3 -10 -11 -18 -17 -18 -5 0 -10 -7 -10 -15 0 -8 -5 -15 -11 -15 -5 0 -8
-4 -5 -9 3 -5 -1 -14 -9 -21 -8 -7 -12 -16 -9 -21 3 -5 0 -9 -6 -9 -6 0 -8 -4
-5 -10 3 -5 1 -10 -6 -10 -7 0 -9 -3 -6 -6 3 -4 2 -15 -4 -26 -6 -11 -12 -28
-15 -39 -2 -10 -7 -29 -10 -42 -11 -41 -14 -208 -4 -227 7 -13 6 -20 -3 -23
-9 -4 -9 -6 1 -6 6 -1 12 -9 12 -18 0 -22 23 -86 33 -94 5 -3 9 -10 8 -15 -1
-22 12 -54 22 -54 6 0 8 -3 4 -6 -5 -6 16 -34 25 -34 2 0 4 18 5 40 1 25 -3
37 -10 33 -6 -4 -7 -1 -1 8 5 8 9 41 10 74 3 85 7 115 16 115 4 0 7 3 6 7 -4
19 15 83 25 83 6 0 7 3 4 6 -4 4 2 19 13 34 11 16 20 32 20 37 0 16 56 73 64
65 4 -4 6 -2 4 5 -4 15 62 74 75 66 6 -3 7 -1 4 4 -4 6 1 17 10 24 14 12 16
12 9 -1 -6 -13 -5 -12 6 0 7 9 30 24 50 33 20 10 40 22 43 27 4 6 10 8 15 5 5
-3 16 2 24 11 9 8 16 12 16 8 0 -3 8 0 17 7 13 11 15 11 9 1 -7 -11 -4 -11 13
0 12 7 21 15 21 18 0 3 8 6 18 7 44 2 72 8 72 14 0 7 93 25 118 22 6 0 12 3
12 7 0 5 8 9 18 9 35 1 52 4 52 10 0 3 15 7 33 8 69 6 77 7 77 16 0 4 4 5 10
2 5 -3 19 -1 31 6 16 8 20 8 14 -1 -6 -9 -3 -9 12 -1 11 6 23 7 27 4 3 -3 6
-2 6 3 0 5 8 10 18 11 49 3 72 8 72 18 0 5 5 3 10 -5 5 -8 10 -10 10 -5 0 9
16 13 73 18 9 1 17 5 17 9 0 4 9 5 20 3 11 -2 20 1 20 7 0 6 9 8 20 5 11 -3
20 0 20 6 0 6 3 7 7 4 3 -4 13 -1 21 6 13 10 14 9 7 -3 -8 -13 -7 -13 8 -1 9
7 17 10 17 5 0 -5 5 -2 10 6 9 13 10 13 10 0 0 -13 2 -13 9 -1 5 8 18 16 28
17 31 4 47 9 61 18 7 4 16 5 19 2 3 -3 15 0 27 6 11 7 24 11 29 10 4 -1 7 3 7
9 0 5 4 8 9 4 5 -3 12 -1 16 5 4 6 11 8 16 5 5 -4 9 -1 9 5 0 6 5 8 10 5 6 -3
10 -1 10 5 0 6 5 8 10 5 6 -3 10 -1 10 5 0 6 5 8 10 5 6 -3 13 1 16 9 3 9 10
16 16 16 5 0 6 -6 3 -12 -4 -7 0 -5 8 5 8 9 18 17 23 17 5 0 27 14 48 30 21
16 43 27 48 24 5 -3 8 -2 7 3 -3 20 2 34 11 28 6 -3 10 -1 10 5 0 6 5 8 10 5
6 -3 10 -2 10 4 0 6 14 25 30 43 17 18 43 46 58 63 15 16 20 25 12 21 -8 -5
-5 1 8 13 12 12 20 26 17 32 -4 5 -1 9 4 9 6 0 10 3 9 8 -1 4 3 17 10 30 7 12
9 22 5 22 -4 0 -1 5 7 10 12 8 12 10 1 10 -10 0 -11 3 -3 13 7 8 7 18 2 27 -5
8 -6 19 -2 24 9 16 10 66 0 72 -4 3 -8 14 -8 24 0 11 -12 24 -30 32 -16 7 -30
16 -30 20 0 12 -67 3 -83 -10 -7 -6 -17 -9 -20 -5 -4 3 -7 -1 -7 -11 0 -9 -3
-15 -7 -13 -8 5 -34 -18 -29 -24 1 -2 -6 -12 -16 -21 -17 -17 -19 -16 -52 17
-20 19 -40 35 -46 35 -6 0 -9 4 -6 9 3 4 -6 13 -20 20 -15 7 -22 16 -18 23 5
8 2 9 -10 5 -10 -4 -19 -1 -22 8 -4 8 -15 15 -25 15 -10 0 -19 5 -19 10 0 6
-7 10 -15 10 -8 0 -15 5 -15 11 0 5 -5 7 -10 4 -6 -3 -13 0 -16 9 -3 8 -14 13
-24 11 -10 -2 -21 3 -24 11 -3 9 -10 13 -15 9 -5 -3 -12 -1 -16 5 -4 6 -10 8
-15 5 -5 -3 -11 -1 -15 5 -3 5 -15 10 -26 10 -10 0 -19 4 -19 9 0 5 -11 8 -25
6 -14 -1 -25 2 -25 7 0 6 -6 8 -14 5 -8 -3 -17 -3 -20 1 -8 7 -29 11 -78 13
-22 1 -35 6 -31 12 4 6 1 7 -8 1 -21 -13 -51 -16 -44 -4 7 11 2 13 -8 3z"/>
<path d="M2257 1770 c-9 -11 -13 -20 -9 -20 4 -1 -3 -9 -16 -19 -15 -13 -18
-21 -10 -24 10 -4 10 -6 0 -6 -7 -1 -10 -6 -6 -13 4 -7 3 -8 -4 -4 -11 6 -38
-31 -34 -47 1 -4 -1 -6 -5 -5 -5 1 -32 -21 -60 -50 -29 -28 -53 -48 -54 -44 0
4 -4 -3 -10 -16 -5 -13 -13 -20 -19 -17 -6 3 -13 -1 -16 -9 -3 -9 -12 -16 -20
-16 -8 0 -14 -4 -14 -10 0 -5 -7 -10 -15 -10 -8 0 -15 -5 -15 -12 0 -6 -3 -9
-6 -5 -3 3 -16 -3 -27 -14 -12 -11 -27 -17 -34 -15 -11 5 -17 -5 -15 -25 1 -3
-5 -6 -13 -6 -8 0 -11 5 -8 11 4 5 -7 0 -24 -12 -17 -12 -33 -18 -37 -14 -4 3
-11 0 -16 -7 -4 -8 -20 -15 -36 -17 -15 -2 -31 -9 -35 -16 -7 -10 -9 -10 -9 1
0 11 -4 10 -16 -5 -8 -10 -12 -12 -8 -4 6 12 4 12 -12 -1 -10 -9 -25 -14 -33
-11 -9 3 -11 0 -6 -8 5 -8 4 -11 -3 -6 -6 4 -27 0 -46 -8 -19 -8 -37 -12 -40
-8 -3 3 -6 1 -6 -4 0 -5 -15 -10 -32 -9 -18 0 -42 -6 -54 -12 -11 -7 -24 -10
-27 -7 -4 4 -13 2 -20 -5 -8 -6 -26 -12 -41 -13 -14 -1 -26 -6 -26 -10 0 -4
-9 -5 -20 -3 -11 2 -20 0 -20 -4 0 -4 -10 -7 -23 -6 -12 1 -24 -2 -27 -6 -3
-5 -21 -9 -40 -10 -19 -2 -40 -6 -46 -11 -6 -4 -27 -9 -46 -10 -20 -2 -34 -6
-31 -10 2 -5 -8 -8 -22 -8 -14 0 -24 -3 -22 -7 3 -5 -11 -9 -31 -10 -19 -1
-39 -8 -43 -15 -5 -7 -9 -9 -9 -4 0 4 -12 1 -26 -9 -15 -9 -23 -12 -20 -6 4 6
-15 -2 -43 -19 -28 -16 -51 -27 -51 -24 0 3 -7 -1 -15 -8 -35 -32 -45 -38 -60
-38 -9 0 -14 -4 -10 -9 3 -5 -4 -13 -16 -16 -11 -4 -18 -9 -15 -12 2 -3 -7
-16 -21 -29 -14 -13 -22 -24 -17 -24 5 0 1 -5 -9 -11 -9 -6 -15 -14 -12 -20 4
-5 2 -9 -3 -9 -18 0 -52 -101 -56 -162 -1 -15 -4 -30 -8 -33 -4 -4 -3 -18 2
-31 7 -16 6 -24 -1 -24 -8 0 -7 -5 1 -15 7 -8 10 -22 6 -30 -3 -8 -1 -15 5
-15 5 0 9 -6 8 -12 -2 -15 7 -42 27 -79 7 -14 11 -29 7 -33 -3 -3 -1 -6 5 -6
7 0 12 -5 12 -10 0 -6 6 -17 12 -25 42 -48 69 -75 78 -75 6 0 10 -4 10 -10 0
-5 7 -10 15 -10 8 0 15 -6 15 -12 0 -10 2 -10 9 0 7 11 9 11 14 -2 4 -9 13
-13 22 -10 8 3 15 2 15 -3 0 -5 26 -8 58 -6 77 4 82 5 82 15 0 5 4 7 9 3 5 -3
16 1 24 9 8 8 17 12 21 9 3 -4 6 0 6 7 0 7 3 11 6 7 4 -3 22 13 40 36 19 23
39 48 44 55 6 6 8 12 4 12 -3 0 -1 7 6 15 7 8 10 15 6 15 -3 0 2 9 11 20 10
11 18 35 18 52 1 23 6 32 16 29 8 -2 30 -5 49 -6 47 -4 64 -8 72 -20 5 -6 8
-6 8 2 0 6 8 10 18 8 9 -1 23 3 31 9 11 8 13 8 7 -1 -9 -16 35 -13 46 2 5 6 8
4 8 -5 0 -13 1 -13 10 0 7 11 10 11 10 2 0 -9 5 -10 19 -3 10 6 21 8 24 4 3
-3 14 -2 24 2 10 5 24 7 31 6 6 -1 12 4 12 11 0 9 3 9 10 -2 7 -11 10 -11 10
-2 0 7 5 10 10 7 6 -4 16 -2 23 3 7 5 23 8 35 7 13 -1 26 4 29 12 3 7 9 10 14
7 5 -3 9 0 9 5 0 6 5 11 11 11 5 0 7 -5 4 -11 -4 -6 2 -5 14 3 12 7 21 16 21
21 0 4 4 6 8 3 5 -3 33 10 63 29 30 19 64 39 77 45 12 5 22 14 22 20 0 6 5 8
10 5 6 -3 10 -2 10 4 0 5 9 13 20 16 11 4 18 11 15 16 -4 5 1 9 10 9 10 0 13
5 9 12 -5 8 -2 9 9 5 9 -3 19 -1 23 5 5 7 2 8 -7 4 -8 -4 -6 -1 3 7 10 8 14
18 10 22 -4 5 1 5 10 2 10 -3 17 -3 16 1 -3 14 14 42 23 36 5 -3 9 2 9 11 0 8
7 18 15 21 8 4 15 12 15 20 0 8 5 14 11 14 5 0 7 5 4 10 -3 6 1 13 9 16 9 3
16 12 16 20 0 8 5 14 11 14 5 0 7 5 4 10 -3 6 1 13 9 16 9 3 13 10 11 15 -3 5
2 20 11 34 9 14 12 25 8 25 -5 0 -4 4 1 8 16 12 36 52 30 62 -3 5 -1 11 5 15
6 4 8 11 5 16 -4 5 -2 9 4 9 5 0 8 9 6 20 -2 11 0 20 6 20 5 0 9 5 9 11 0 5
-6 7 -12 3 -8 -5 -8 -1 1 10 8 10 16 43 18 74 2 31 5 63 8 70 2 6 -1 12 -8 12
-8 0 -8 3 2 9 9 6 10 11 2 15 -6 4 -9 11 -6 16 10 17 12 80 2 80 -5 0 -3 8 4
17 9 11 10 14 2 9 -9 -5 -13 1 -13 18 0 15 0 37 0 52 0 17 -4 23 -13 18 -9 -6
-9 -5 0 8 7 8 10 18 6 21 -3 4 0 7 7 7 7 0 11 3 7 6 -3 4 0 19 8 35 26 49 15
67 -18 29z"/>
</g>
</svg>
